<?xml version="1.0" encoding="UTF-8" standalone="no"?>
<!DOCTYPE svg PUBLIC "-//W3C//DTD SVG 1.1//EN"
 "http://www.w3.org/Graphics/SVG/1.1/DTD/svg11.dtd">
<!-- Generated by graphviz version 2.26.3 (20100126.1600)
 -->
<!-- Title: controllers_diagram Pages: 1 -->
<svg width="546pt" height="466pt"
 viewBox="0.00 0.00 546.00 466.00" xmlns="http://www.w3.org/2000/svg" xmlns:xlink="http://www.w3.org/1999/xlink">
<g id="graph1" class="graph" transform="scale(1 1) rotate(0) translate(4 462)">
<title>controllers_diagram</title>
<polygon fill="white" stroke="white" points="-4,5 -4,-462 543,-462 543,5 -4,5"/>
<!-- _diagram_info -->
<g id="node1" class="node"><title>_diagram_info</title>
<text text-anchor="start" x="329" y="-127.3" font-family="Times,serif" font-size="13.00">Controllers diagram</text>
<text text-anchor="start" x="329" y="-113.3" font-family="Times,serif" font-size="13.00">Date: Aug 28 2011 &#45; 11:43</text>
<text text-anchor="start" x="329" y="-99.3" font-family="Times,serif" font-size="13.00">Migration version: 20110805112031</text>
<text text-anchor="start" x="329" y="-85.3" font-family="Times,serif" font-size="13.00">Generated by RailRoady 1.0.2</text>
<text text-anchor="start" x="329" y="-71.3" font-family="Times,serif" font-size="13.00">http://railroady.prestonlee.com</text>
</g>
<!-- ApplicationController -->
<g id="node2" class="node"><title>ApplicationController</title>
<polyline fill="none" stroke="black" points="93,-129.5 269,-129.5 "/>
<path fill="none" stroke="black" d="M269,-129.5C275,-129.5 281,-135.5 281,-141.5"/>
<polyline fill="none" stroke="black" points="281,-141.5 281,-225.5 "/>
<path fill="none" stroke="black" d="M281,-225.5C281,-231.5 275,-237.5 269,-237.5"/>
<polyline fill="none" stroke="black" points="269,-237.5 93,-237.5 "/>
<path fill="none" stroke="black" d="M93,-237.5C87,-237.5 81,-231.5 81,-225.5"/>
<polyline fill="none" stroke="black" points="81,-225.5 81,-141.5 "/>
<path fill="none" stroke="black" d="M81,-141.5C81,-135.5 87,-129.5 93,-129.5"/>
<text text-anchor="middle" x="181" y="-220.9" font-family="Times,serif" font-size="14.00">ApplicationController</text>
<polyline fill="none" stroke="black" points="81,-214.5 281,-214.5 "/>
<text text-anchor="start" x="89" y="-197.9" font-family="Times,serif" font-size="14.00">_one_time_conditions_valid_8?</text>
<polyline fill="none" stroke="black" points="81,-191.5 281,-191.5 "/>
<polyline fill="none" stroke="black" points="81,-167.5 281,-167.5 "/>
<text text-anchor="start" x="89" y="-150.9" font-family="Times,serif" font-size="14.00">_layout</text>
<text text-anchor="start" x="89" y="-135.9" font-family="Times,serif" font-size="14.00">_run_process_action_callbacks</text>
</g>
<!-- QuestionGroupsController -->
<g id="node3" class="node"><title>QuestionGroupsController</title>
<polyline fill="none" stroke="black" points="77,-321.5 223,-321.5 "/>
<path fill="none" stroke="black" d="M223,-321.5C229,-321.5 235,-327.5 235,-333.5"/>
<polyline fill="none" stroke="black" points="235,-333.5 235,-402.5 "/>
<path fill="none" stroke="black" d="M235,-402.5C235,-408.5 229,-414.5 223,-414.5"/>
<polyline fill="none" stroke="black" points="223,-414.5 77,-414.5 "/>
<path fill="none" stroke="black" d="M77,-414.5C71,-414.5 65,-408.5 65,-402.5"/>
<polyline fill="none" stroke="black" points="65,-402.5 65,-333.5 "/>
<path fill="none" stroke="black" d="M65,-333.5C65,-327.5 71,-321.5 77,-321.5"/>
<text text-anchor="middle" x="150" y="-397.9" font-family="Times,serif" font-size="14.00">QuestionGroupsController</text>
<polyline fill="none" stroke="black" points="65,-391.5 235,-391.5 "/>
<text text-anchor="start" x="73" y="-374.9" font-family="Times,serif" font-size="14.00">index</text>
<polyline fill="none" stroke="black" points="65,-368.5 235,-368.5 "/>
<polyline fill="none" stroke="black" points="65,-344.5 235,-344.5 "/>
<text text-anchor="start" x="73" y="-327.9" font-family="Times,serif" font-size="14.00">_layout</text>
</g>
<!-- QuestionsController -->
<g id="node4" class="node"><title>QuestionsController</title>
<polyline fill="none" stroke="black" points="13,-1.5 123,-1.5 "/>
<path fill="none" stroke="black" d="M123,-1.5C129,-1.5 135,-7.5 135,-13.5"/>
<polyline fill="none" stroke="black" points="135,-13.5 135,-82.5 "/>
<path fill="none" stroke="black" d="M135,-82.5C135,-88.5 129,-94.5 123,-94.5"/>
<polyline fill="none" stroke="black" points="123,-94.5 13,-94.5 "/>
<path fill="none" stroke="black" d="M13,-94.5C7,-94.5 1,-88.5 1,-82.5"/>
<polyline fill="none" stroke="black" points="1,-82.5 1,-13.5 "/>
<path fill="none" stroke="black" d="M1,-13.5C1,-7.5 7,-1.5 13,-1.5"/>
<text text-anchor="middle" x="68" y="-77.9" font-family="Times,serif" font-size="14.00">QuestionsController</text>
<polyline fill="none" stroke="black" points="1,-71.5 135,-71.5 "/>
<text text-anchor="start" x="9" y="-54.9" font-family="Times,serif" font-size="14.00">index</text>
<polyline fill="none" stroke="black" points="1,-48.5 135,-48.5 "/>
<polyline fill="none" stroke="black" points="1,-24.5 135,-24.5 "/>
<text text-anchor="start" x="9" y="-7.9" font-family="Times,serif" font-size="14.00">_layout</text>
</g>
<!-- SurveysController -->
<g id="node5" class="node"><title>SurveysController</title>
<polyline fill="none" stroke="black" points="285,-273.5 383,-273.5 "/>
<path fill="none" stroke="black" d="M383,-273.5C389,-273.5 395,-279.5 395,-285.5"/>
<polyline fill="none" stroke="black" points="395,-285.5 395,-444.5 "/>
<path fill="none" stroke="black" d="M395,-444.5C395,-450.5 389,-456.5 383,-456.5"/>
<polyline fill="none" stroke="black" points="383,-456.5 285,-456.5 "/>
<path fill="none" stroke="black" d="M285,-456.5C279,-456.5 273,-450.5 273,-444.5"/>
<polyline fill="none" stroke="black" points="273,-444.5 273,-285.5 "/>
<path fill="none" stroke="black" d="M273,-285.5C273,-279.5 279,-273.5 285,-273.5"/>
<text text-anchor="middle" x="334" y="-439.9" font-family="Times,serif" font-size="14.00">SurveysController</text>
<polyline fill="none" stroke="black" points="273,-433.5 395,-433.5 "/>
<text text-anchor="start" x="281" y="-416.9" font-family="Times,serif" font-size="14.00">create</text>
<text text-anchor="start" x="281" y="-401.9" font-family="Times,serif" font-size="14.00">destroy</text>
<text text-anchor="start" x="281" y="-386.9" font-family="Times,serif" font-size="14.00">edit</text>
<text text-anchor="start" x="281" y="-371.9" font-family="Times,serif" font-size="14.00">index</text>
<text text-anchor="start" x="281" y="-356.9" font-family="Times,serif" font-size="14.00">new</text>
<text text-anchor="start" x="281" y="-341.9" font-family="Times,serif" font-size="14.00">show</text>
<text text-anchor="start" x="281" y="-326.9" font-family="Times,serif" font-size="14.00">update</text>
<polyline fill="none" stroke="black" points="273,-320.5 395,-320.5 "/>
<polyline fill="none" stroke="black" points="273,-296.5 395,-296.5 "/>
<text text-anchor="start" x="281" y="-279.9" font-family="Times,serif" font-size="14.00">_layout</text>
</g>
</g>
</svg>
