<?xml version="1.0" encoding="UTF-8" standalone="no"?>
<!DOCTYPE svg PUBLIC "-//W3C//DTD SVG 1.1//EN"
 "http://www.w3.org/Graphics/SVG/1.1/DTD/svg11.dtd">
<!-- Generated by graphviz version 2.26.3 (20100126.1600)
 -->
<!-- Title: models_diagram Pages: 1 -->
<svg width="548pt" height="230pt"
 viewBox="0.00 0.00 548.00 230.00" xmlns="http://www.w3.org/2000/svg" xmlns:xlink="http://www.w3.org/1999/xlink">
<g id="graph1" class="graph" transform="scale(1 1) rotate(0) translate(4 226)">
<title>models_diagram</title>
<polygon fill="white" stroke="white" points="-4,5 -4,-226 545,-226 545,5 -4,5"/>
<!-- _diagram_info -->
<g id="node1" class="node"><title>_diagram_info</title>
<text text-anchor="start" x="8" y="-206.3" font-family="Times,serif" font-size="13.00">Models diagram</text>
<text text-anchor="start" x="8" y="-192.3" font-family="Times,serif" font-size="13.00">Date: Aug 28 2011 &#45; 11:43</text>
<text text-anchor="start" x="8" y="-178.3" font-family="Times,serif" font-size="13.00">Migration version: 20110805112031</text>
<text text-anchor="start" x="8" y="-164.3" font-family="Times,serif" font-size="13.00">Generated by RailRoady 1.0.2</text>
<text text-anchor="start" x="8" y="-150.3" font-family="Times,serif" font-size="13.00">http://railroady.prestonlee.com</text>
</g>
<!-- Answer -->
<g id="node2" class="node"><title>Answer</title>
<ellipse fill="none" stroke="black" cx="268" cy="-18" rx="39.1446" ry="18"/>
<text text-anchor="middle" x="268" y="-12.9" font-family="Times,serif" font-size="14.00">Answer</text>
</g>
<!-- Client -->
<g id="node3" class="node"><title>Client</title>
<ellipse fill="none" stroke="black" cx="268" cy="-183" rx="33.9477" ry="18"/>
<text text-anchor="middle" x="268" y="-177.9" font-family="Times,serif" font-size="14.00">Client</text>
</g>
<!-- Survey -->
<g id="node8" class="node"><title>Survey</title>
<ellipse fill="none" stroke="black" cx="268" cy="-90" rx="35.8982" ry="18"/>
<text text-anchor="middle" x="268" y="-84.9" font-family="Times,serif" font-size="14.00">Survey</text>
</g>
<!-- Client&#45;&gt;Survey -->
<g id="edge2" class="edge"><title>Client&#45;&gt;Survey</title>
<path fill="none" stroke="black" d="M268,-156.443C268,-144.448 268,-130.268 268,-118.095"/>
<ellipse fill="none" stroke="black" cx="268" cy="-160.626" rx="4" ry="4"/>
<polygon fill="black" stroke="black" points="268,-118.019 272.5,-108.019 268,-113.019 268,-108.019 268,-108.019 268,-108.019 268,-113.019 263.5,-108.019 268,-118.019 268,-118.019"/>
</g>
<!-- Option -->
<g id="node4" class="node"><title>Option</title>
<ellipse fill="none" stroke="black" cx="366" cy="-18" rx="35.8982" ry="18"/>
<text text-anchor="middle" x="366" y="-12.9" font-family="Times,serif" font-size="14.00">Option</text>
</g>
<!-- Question -->
<g id="node5" class="node"><title>Question</title>
<ellipse fill="none" stroke="black" cx="366" cy="-90" rx="44.1961" ry="18"/>
<text text-anchor="middle" x="366" y="-84.9" font-family="Times,serif" font-size="14.00">Question</text>
</g>
<!-- Question&#45;&gt;Option -->
<g id="edge4" class="edge"><title>Question&#45;&gt;Option</title>
<path fill="none" stroke="black" d="M366,-63.8144C366,-58.2775 366,-52.4053 366,-46.7785"/>
<ellipse fill="none" stroke="black" cx="366" cy="-67.8314" rx="4" ry="4"/>
<polygon fill="black" stroke="black" points="366,-46.4133 370.5,-36.4132 366,-41.4133 366,-36.4133 366,-36.4133 366,-36.4133 366,-41.4133 361.5,-36.4133 366,-46.4133 366,-46.4133"/>
</g>
<!-- QuestionGroup -->
<g id="node6" class="node"><title>QuestionGroup</title>
<ellipse fill="none" stroke="black" cx="436" cy="-183" rx="67.0933" ry="18"/>
<text text-anchor="middle" x="436" y="-177.9" font-family="Times,serif" font-size="14.00">QuestionGroup</text>
</g>
<!-- QuestionGroup&#45;&gt;Question -->
<g id="edge6" class="edge"><title>QuestionGroup&#45;&gt;Question</title>
<path fill="none" stroke="black" d="M417.537,-158.47C407.581,-145.244 395.308,-128.938 385.236,-115.557"/>
<ellipse fill="none" stroke="black" cx="420.098" cy="-161.873" rx="4.00002" ry="4.00002"/>
<polygon fill="black" stroke="black" points="384.996,-115.237 382.577,-104.541 381.989,-111.242 378.982,-107.247 378.982,-107.247 378.982,-107.247 381.989,-111.242 375.387,-109.954 384.996,-115.237 384.996,-115.237"/>
</g>
<!-- ScoreRange -->
<g id="node7" class="node"><title>ScoreRange</title>
<ellipse fill="none" stroke="black" cx="484" cy="-90" rx="55.895" ry="18"/>
<text text-anchor="middle" x="484" y="-84.9" font-family="Times,serif" font-size="14.00">ScoreRange</text>
</g>
<!-- QuestionGroup&#45;&gt;ScoreRange -->
<g id="edge8" class="edge"><title>QuestionGroup&#45;&gt;ScoreRange</title>
<path fill="none" stroke="black" d="M449.057,-157.702C455.545,-145.132 463.389,-129.933 470.001,-117.123"/>
<ellipse fill="none" stroke="black" cx="447.089" cy="-161.514" rx="4.00002" ry="4.00002"/>
<polygon fill="black" stroke="black" points="470.187,-116.763 478.772,-109.94 472.48,-112.319 474.774,-107.876 474.774,-107.876 474.774,-107.876 472.48,-112.319 470.775,-105.812 470.187,-116.763 470.187,-116.763"/>
</g>
<!-- Survey&#45;&gt;Answer -->
<g id="edge10" class="edge"><title>Survey&#45;&gt;Answer</title>
<path fill="none" stroke="black" d="M268,-63.8144C268,-58.2775 268,-52.4053 268,-46.7785"/>
<ellipse fill="none" stroke="black" cx="268" cy="-67.8314" rx="4" ry="4"/>
<polygon fill="black" stroke="black" points="268,-46.4133 272.5,-36.4132 268,-41.4133 268,-36.4133 268,-36.4133 268,-36.4133 268,-41.4133 263.5,-36.4133 268,-46.4133 268,-46.4133"/>
</g>
</g>
</svg>
